{
  "name" : "kelix",
   "setting":{
      "nomserveur":"lorem",
      "authen":"Minecraft premium",
      "versionserv":"1.7.2",
      "supportmods":"Non",
      "optlauncher":"Oui",
      "fondlauncher":"Non",
      "hebergdonnee":"lorem",
      "iden":"lorem",
      "password":"lorem"
   },
  "bg" :
    {
      "url" : "json/launcher/kelix/bg2.png",
      "width" : 1200,
      "height" : 675
    }
  ,
  "button" : [
    {
      "name" : "connexion",
      "action":"play",
      "url" : "json/launcher/kelix/connexion.png",
      "url_hover" : "json/launcher/kelix/connexion_hover.png",
      "width" : 152,
      "height" : 46,
      "x" : 524,
      "y" : 455,
      "rot":0
    },
    {
      "name" : "close",
      "action":"close",
      "url" : "json/launcher/kelix/close.png",
      "url_hover" : "json/launcher/kelix/close_hover.png",
      "width" : 50,
      "height" : 32,
      "x" : 1151,
      "y" : 0,
      "rot":0
    },
    {
      "name" : "red",
      "action":"reduct",
      "url" : "json/launcher/kelix/red.png",
      "url_hover" : "json/launcher/kelix/red_hover.png",
      "width" : 56,
      "height" : 32,
      "x" : 1096,
      "y" : 0,
      "rot":0
    },
    {
      "name" : "opt",
      "action":"opt",
      "url" : "json/launcher/kelix/opt.png",
      "url_hover" : "json/launcher/kelix/opt_hover.png",
      "width" : 56,
      "height" : 32,
      "x" : 1041,
      "y" : 0,
      "rot":0
    },
    {
      "name" : "site",
      "action":"link:http://site.net",
      "url" : "json/launcher/kelix/site.png",
      "url_hover" : "json/launcher/kelix/site_hover.png",
      "width" : 69,
      "height" : 24,
      "z" : 2,
      "x" : 11,
      "y" : 640,
      "rot":0
    }
  ],
  "textfield" : [
    {
      "name" : "userfield",
      "type" : "text",
      "textalign" : "center",
      "x" : 455,
      "y" : 355,
      "width" : 290,
      "height" : 37,
      "rot":0
    },
    {
      "name" : "passfield",
      "type" : "password",
      "textalign" : "center",
      "x" : 455,
      "y" : 400,
      "width" : 290,
      "height" : 37,
      "rot":0
    }
  ],
  "square" : [
    {
      "name":"IYQ7B",
      "arrondCorner":"0px",
      "couleur":"rgb(25,25,25)",
      "opacity" : 0.92,
      "width":1200,
      "height":43,
      "x":0,
      "y":632,
      "rot":0
    }
  ],
  "progressbar" : [
      {
         "name":"progressbar",
         "fgcolor":"rgb(236, 131, 0)",
         "bgcolor":"rgb(255, 255, 255)",
         "width":1200,
         "height":10,
         "x":0,
         "y":622,
         "rot":0
      }
  ],
  "head" : [
      {
         "name":"head",
         "width":200,
         "height":200,
         "x":500,
         "y":140,
         "rot":0
      }
  ]

}
